<svg width="72" height="72" viewBox="0 0 72 72" fill="none" xmlns="http://www.w3.org/2000/svg">
<path d="M18.75 35.125H20.5V36.875H18.75V35.125Z" fill="black"/>
<path d="M32.75 57H13.5C13.2679 57 13.0454 57.0922 12.8813 57.2563C12.7172 57.4204 12.625 57.6429 12.625 57.875C12.625 58.1071 12.7172 58.3296 12.8813 58.4937C13.0454 58.6578 13.2679 58.75 13.5 58.75H32.75C32.9821 58.75 33.2046 58.6578 33.3687 58.4937C33.5328 58.3296 33.625 58.1071 33.625 57.875C33.625 57.6429 33.5328 57.4204 33.3687 57.2563C33.2046 57.0922 32.9821 57 32.75 57Z" fill="black"/>
<path d="M19.2168 40.3629L20.9073 39.9097L21.3605 41.6002L19.67 42.0534L19.2168 40.3629Z" fill="black"/>
<path d="M21.0083 45.3047L22.5238 44.4297L23.3988 45.9452L21.8833 46.8202L21.0083 45.3047Z" fill="black"/>
<path d="M24.0195 49.6104L25.2568 48.3731L26.494 49.6104L25.2568 50.8476L24.0195 49.6104Z" fill="black"/>
<path d="M28.0532 52.9958L28.9282 51.4803L30.4437 52.3553L29.5687 53.8709L28.0532 52.9958Z" fill="black"/>
<path d="M19.2134 31.6388L19.6666 29.9483L21.3571 30.4015L20.9039 32.092L19.2134 31.6388Z" fill="black"/>
<path d="M21.0078 26.6952L21.8828 25.1797L23.3983 26.0547L22.5233 27.5702L21.0078 26.6952Z" fill="black"/>
<path d="M24.022 22.3887L25.2592 21.1514L26.4965 22.3887L25.2592 23.6259L24.022 22.3887Z" fill="black"/>
<path d="M28.0547 19.01L29.5702 18.135L30.4452 19.6505L28.9297 20.5255L28.0547 19.01Z" fill="black"/>
<path d="M45 53.5H43.25V55.25H41.5V57H43.25V58.75H45V57H46.75V55.25H45V53.5Z" fill="black"/>
<path d="M41.5 60.5H46.75V62.25H41.5V60.5Z" fill="black"/>
<path d="M47.625 18.5C47.8571 18.5 48.0796 18.5922 48.2437 18.7563C48.4078 18.9204 48.5 19.1429 48.5 19.375C48.5 19.6071 48.5922 19.8296 48.7563 19.9937C48.9204 20.1578 49.1429 20.25 49.375 20.25C49.6071 20.25 49.8296 20.1578 49.9937 19.9937C50.1578 19.8296 50.25 19.6071 50.25 19.375C50.25 18.6788 49.9734 18.0111 49.4812 17.5188C48.9889 17.0266 48.3212 16.75 47.625 16.75C47.3929 16.75 47.1704 16.8422 47.0063 17.0063C46.8422 17.1704 46.75 17.3929 46.75 17.625C46.75 17.8571 46.8422 18.0796 47.0063 18.2437C47.1704 18.4078 47.3929 18.5 47.625 18.5Z" fill="black"/>
<path d="M47.625 9.75C47.3929 9.75 47.1704 9.84219 47.0063 10.0063C46.8422 10.1704 46.75 10.3929 46.75 10.625C46.75 10.8571 46.8422 11.0796 47.0063 11.2437C47.1704 11.4078 47.3929 11.5 47.625 11.5C49.7129 11.5023 51.7146 12.3327 53.1909 13.8091C54.6673 15.2854 55.4977 17.2871 55.5 19.375C55.5 19.6071 55.5922 19.8296 55.7563 19.9937C55.9204 20.1578 56.1429 20.25 56.375 20.25C56.6071 20.25 56.8296 20.1578 56.9937 19.9937C57.1578 19.8296 57.25 19.6071 57.25 19.375C57.247 16.8232 56.232 14.3768 54.4276 12.5724C52.6232 10.768 50.1768 9.75301 47.625 9.75V9.75Z" fill="black"/>
<path d="M47.625 15C48.7849 15.0014 49.8969 15.4628 50.7171 16.2829C51.5372 17.1031 51.9986 18.2151 52 19.375C52 19.6071 52.0922 19.8296 52.2563 19.9937C52.4204 20.1578 52.6429 20.25 52.875 20.25C53.1071 20.25 53.3296 20.1578 53.4937 19.9937C53.6578 19.8296 53.75 19.6071 53.75 19.375C53.7481 17.7511 53.1022 16.1943 51.954 15.046C50.8057 13.8978 49.2489 13.2519 47.625 13.25C47.3929 13.25 47.1704 13.3422 47.0063 13.5063C46.8422 13.6704 46.75 13.8929 46.75 14.125C46.75 14.3571 46.8422 14.5796 47.0063 14.7437C47.1704 14.9078 47.3929 15 47.625 15Z" fill="black"/>
<path d="M48.5 26.375C48.5 26.143 48.4078 25.9204 48.2438 25.7563C48.0797 25.5922 47.8571 25.5 47.625 25.5H45C44.768 25.5 44.5454 25.5922 44.3813 25.7563C44.2172 25.9204 44.125 26.143 44.125 26.375V27.9728L39.4438 23.9609C39.2853 23.8253 39.0836 23.7509 38.875 23.7509C38.6665 23.7509 38.4648 23.8253 38.3063 23.9609L26.0563 34.4609C25.9207 34.5772 25.8239 34.7323 25.779 34.9052C25.7342 35.0782 25.7433 35.2607 25.8052 35.4283C25.8672 35.5959 25.9789 35.7405 26.1255 35.8427C26.272 35.945 26.4464 35.9998 26.625 36H29.25V45.625C29.25 45.8571 29.3422 46.0797 29.5063 46.2438C29.6704 46.4078 29.893 46.5 30.125 46.5H47.625C47.8571 46.5 48.0797 46.4078 48.2438 46.2438C48.4078 46.0797 48.5 45.8571 48.5 45.625V36H51.125C51.3038 36 51.4782 35.9453 51.6249 35.8431C51.7716 35.741 51.8835 35.5964 51.9456 35.4287C52.0076 35.2611 52.0168 35.0785 51.972 34.9055C51.9271 34.7324 51.8303 34.5773 51.6947 34.4609L48.5 31.7222V26.375ZM45.875 27.25H46.75V30.225L45.875 29.476V27.25ZM37.125 44.75V37.75H40.625V44.75H37.125ZM47.625 34.25C47.393 34.25 47.1704 34.3422 47.0063 34.5063C46.8422 34.6704 46.75 34.893 46.75 35.125V44.75H42.375V36.875C42.375 36.643 42.2828 36.4204 42.1187 36.2563C41.9547 36.0922 41.7321 36 41.5 36H36.25C36.018 36 35.7954 36.0922 35.6313 36.2563C35.4672 36.4204 35.375 36.643 35.375 36.875V44.75H31V35.125C31 34.893 30.9078 34.6704 30.7437 34.5063C30.5796 34.3422 30.3571 34.25 30.125 34.25H28.9875L38.875 25.7774L48.7625 34.25H47.625Z" fill="black"/>
<path d="M39.75 19.4196V14.125C39.7486 12.9651 39.2872 11.8531 38.4671 11.0329C37.6469 10.2128 36.5349 9.75139 35.375 9.75H10.875C9.7151 9.75139 8.60311 10.2128 7.78294 11.0329C6.96277 11.8531 6.50139 12.9651 6.5 14.125V57.875C6.50139 59.0349 6.96277 60.1469 7.78294 60.9671C8.60311 61.7872 9.7151 62.2486 10.875 62.25H35.375C36.5349 62.2486 37.6469 61.7872 38.4671 60.9671C39.2872 60.1469 39.7486 59.0349 39.75 57.875V52.5804C44.0033 52.3662 48.0117 50.5259 50.9463 47.4397C53.881 44.3536 55.5175 40.2578 55.5175 35.9991C55.5175 31.7405 53.881 27.6446 50.9463 24.5585C48.0117 21.4724 44.0033 19.632 39.75 19.4179V19.4196ZM14.375 11.5H31.875V14.125C31.875 14.3571 31.7828 14.5796 31.6187 14.7437C31.4546 14.9078 31.2321 15 31 15H15.25C15.0179 15 14.7954 14.9078 14.6313 14.7437C14.4672 14.5796 14.375 14.3571 14.375 14.125V11.5ZM35.375 60.5H10.875C10.1788 60.5 9.51113 60.2234 9.01885 59.7312C8.52656 59.2389 8.25 58.5712 8.25 57.875V14.125C8.25 13.4288 8.52656 12.7611 9.01885 12.2688C9.51113 11.7766 10.1788 11.5 10.875 11.5H12.625V14.125C12.625 14.8212 12.9016 15.4889 13.3938 15.9812C13.8861 16.4734 14.5538 16.75 15.25 16.75H31C31.6962 16.75 32.3639 16.4734 32.8562 15.9812C33.3484 15.4889 33.625 14.8212 33.625 14.125V11.5H35.375C36.0712 11.5 36.7389 11.7766 37.2312 12.2688C37.7234 12.7611 38 13.4288 38 14.125V19.4196C33.7467 19.6338 29.7384 21.4741 26.8037 24.5603C23.869 27.6464 22.2325 31.7422 22.2325 36.0009C22.2325 40.2595 23.869 44.3554 26.8037 47.4415C29.7384 50.5276 33.7467 52.368 38 52.5821V57.875C38 58.5712 37.7234 59.2389 37.2312 59.7312C36.7389 60.2234 36.0712 60.5 35.375 60.5ZM38.875 50.875C35.933 50.875 33.0571 50.0026 30.6109 48.3681C28.1647 46.7336 26.2581 44.4105 25.1323 41.6924C24.0064 38.9744 23.7119 35.9835 24.2858 33.098C24.8598 30.2126 26.2765 27.5621 28.3568 25.4818C30.4371 23.4015 33.0876 21.9848 35.973 21.4108C38.8585 20.8369 41.8494 21.1314 44.5674 22.2573C47.2855 23.3831 49.6086 25.2897 51.2431 27.7359C52.8776 30.1821 53.75 33.058 53.75 36C53.7456 39.9437 52.177 43.7247 49.3884 46.5134C46.5997 49.302 42.8187 50.8706 38.875 50.875Z" fill="black"/>
</svg>
