<svg width="24" height="24" viewBox="0 0 24 24" fill="none" xmlns="http://www.w3.org/2000/svg">
<mask id="path-1-inside-1" fill="white">
<path d="M19.5 24H1.33333C0.6 24 0 23.3118 0 22.4706V12.5294C0 11.6882 0.6 11 1.33333 11H20"/>
</mask>
<path d="M19.5 22H1.33333V26H19.5V22ZM1.33333 22C1.62017 22 1.81366 22.1383 1.89921 22.2365C1.98214 22.3316 2 22.4189 2 22.4706H-2C-2 24.1498 -0.753454 26 1.33333 26V22ZM2 22.4706V12.5294H-2V22.4706H2ZM2 12.5294C2 12.5811 1.98214 12.6684 1.89921 12.7635C1.81366 12.8617 1.62017 13 1.33333 13V9C-0.753455 9 -2 10.8502 -2 12.5294H2ZM1.33333 13H20V9H1.33333V13Z" fill="#2E2E2E" mask="url(#path-1-inside-1)"/>
<mask id="path-3-inside-2" fill="white">
<path d="M19 11H22.3333C23.25 11 24 11.6882 24 12.5294V22.4706C24 23.3118 23.25 24 22.3333 24H19"/>
</mask>
<path d="M19 13H22.3333V9H19V13ZM22.3333 13C22.2895 13 22.224 12.9833 22.1582 12.9229C22.0901 12.8604 22 12.7244 22 12.5294H26C26 10.4253 24.1893 9 22.3333 9V13ZM22 12.5294V22.4706H26V12.5294H22ZM22 22.4706C22 22.2756 22.0901 22.1396 22.1582 22.0771C22.224 22.0167 22.2895 22 22.3333 22V26C24.1893 26 26 24.5747 26 22.4706H22ZM22.3333 22H19V26H22.3333V22Z" fill="#2E2E2E" mask="url(#path-3-inside-2)"/>
<path d="M5 12V1H19V12H5Z" stroke="#2E2E2E" stroke-width="2"/>
<path d="M17.9998 18C18.5522 18 19 17.5522 19 16.9998C19 16.4475 18.5522 16 17.9998 16C17.4475 16 17 16.4475 17 16.9998C17 17.5522 17.4475 18 17.9998 18Z" stroke="#2E2E2E" stroke-width="2"/>
<path d="M7.90625 4.25806H15.6966" stroke="#2E2E2E" stroke-width="2"/>
<path d="M7.90625 7.89722H15.6966" stroke="#2E2E2E" stroke-width="2"/>
</svg>
